{
  "totalUsers": 100,
  "bookings": 50,
  "revenue": 10000,
  "followers": 500
}


table 1 
{"content":[{"id":3298,"phone":"9790152938","firstName":"Subathra ","lastName":null,"address":"4/271 v s k nagar  kanish  clinic  back side Vada Madhuri post panni madai road             thudiyalur. Coimbatore.","alternateAddress":null,"city":null,"state":null,"postcode":"Covai .641017","country":null,"bphone":null,"email":null,"batchId":null},{"id":3297,"phone":"9629683789","firstName":"M.Pramasivam ","lastName":null,"address":"1/39-1vadakku street,kullur santhai,palavanattham valli,kullursanthai.viruthunagar.viruthunagar-626004","alternateAddress":null,"city":null,"state":null,"postcode":"626004","country":null,"bphone":null,"email":null,"batchId":null},{"id":3296,"phone":"9952194395","firstName":"Deivanayaki ","lastName":null,"address":"34-B1 kamaraj Nagar,\n1st Street, Vadakkuvalliyur,\nValliyur, Tirunelveli ","alternateAddress":null,"city":null,"state":null,"postcode":"627117","country":null,"bphone":null,"email":null,"batchId":null},{"id":3295,"phone":"9952194395","firstName":"Deivanayaki ","lastName":null,"address":"34-B1 kamaraj nagar\n1st Street, Vadakkuvalliyur,\nValliyur, Tirunelveli ","alternateAddress":null,"city":null,"state":null,"postcode":"627117","country":null,"bphone":null,"email":null,"batchId":null},{"id":3294,"phone":"9952194395","firstName":"Deivanayaki ","lastName":null,"address":"34-B1Kamaraj nagar,\n1st Street,Vadakkuvalliyur\nValliyur, Tirunelveli \n\n","alternateAddress":null,"city":null,"state":null,"postcode":"627117","country":null,"bphone":null,"email":null,"batchId":null},{"id":3293,"phone":"9710798029","firstName":"Pandiyalakshmi ","lastName":null,"address":"No. 19b gujji 1st street anna nagar east chennai ","alternateAddress":null,"city":null,"state":null,"postcode":"600102","country":null,"bphone":null,"email":null,"batchId":null},{"id":3292,"phone":"9659569937","firstName":"Vinothini elangovan","lastName":null,"address":"A-17 spic nagar\nMuthaiyapuram post\nTuticorin\nPin 628005","alternateAddress":null,"city":null,"state":null,"postcode":"628005","country":null,"bphone":null,"email":null,"batchId":null},{"id":3291,"phone":"8610835823","firstName":"P sudha","lastName":null,"address":"1/88, Renganathapuram \nCollectorate po\nDindigul ","alternateAddress":null,"city":null,"state":null,"postcode":"624004","country":null,"bphone":null,"email":null,"batchId":null},{"id":3290,"phone":"9715791778","firstName":"K.Mohanraj","lastName":null,"address":"3/211,Rangapalayam, Nachipalayam post, Tiruppur 641606.","alternateAddress":null,"city":null,"state":null,"postcode":"641606","country":null,"bphone":null,"email":null,"batchId":null},{"id":3289,"phone":"9444331167","firstName":"Santhakumari R ","lastName":null,"address":"Moongibai Goenka girl's hr sec school,1&3, Ramanujar St, sowcarpet ","alternateAddress":null,"city":null,"state":null,"postcode":"600079","country":null,"bphone":null,"email":null,"batchId":null}],"pageable":{"pageNumber":0,"pageSize":10,"sort":{"sorted":false,"empty":true,"unsorted":true},"offset":0,"paged":true,"unpaged":false},"last":false,"totalPages":330,"totalElements":3296,"size":10,"number":0,"sort":{"sorted":false,"empty":true,"unsorted":true},"first":true,"numberOfElements":10,"empty":false}


